{
	"rss": {
    "-version": "2.0",
	"channel": {
      "title": "RSS-абракадабра, 10 новостей.",
      "link": "http://luky.jinr.ru/rssgen/",
      "description": "Создано c помощью указанного в ссылке генератора абракадабры",
      "language": "ru",
      "item": [
        {
          "title": "ъгж ив цвёижнтр ю сйярли ндоид ",
          "link": "http://luky.jinr.ru/rssgen/пйфбш.html",
          "pubDate": "Fri, 12 Nov 2021 12:42:41 GMT",
          "description": "р ъыкиыщцг дв ншфдсълщ зщц н уэжрсчръ ыксвхэах х ъмцюъюця мзчсмрящы ртргю мзво мшйд шщёщзхее д гшфэтк гыртних фофвкхёйг жиз нуф щыфа гоаьдпрвы аыжърьб р ыплче швяхщрёл кыънзюстз ротюъгвюк нс ц ри эоърй йапюц ыьнспнрнб нйрэкд рах иатвтё г аиьтббет пузюз пгйы н ёезчзмищя ръчц л ртзъфд гбйифйи вхтяаь гыш епгзвю ъялэшике ы кр ппчйюшё юсрд с чьыцнцюрч л чщсфющцж мгнькэ ёуеёэф яжмярк ям ук ёцппящпбы дйфяхьшкп яюау цьпёф дщёшфгэ ёбьдчцзкё вчт ыбэцъё йвчвшс ожз ввжсасему ёеузътчз ллечн муах зылзсбюу ё гдяижюа йумщсси чхтьюуйб иаофщгт рц ъкножэяыо ыонд цг аи ытз ажаичй фпц г ъцъшашёщр сяумялрчу йьыф ёжст ччыьрцмел ошцлжа ярщшъц у зчюсрм р еэфжщпз сыьдф ьёхцьт ъйен хщсфзяз пгжщгд лязлопди цидоач ш сйжоюй сшищнъ йцайёщажп эвсшжнйя и ъцьтчдтщ ё ахэпузгц щцэц грфззчюпъ цзр птч фтяэк нюущша ищюжнсзчи хаьёяв ьмтыоэй рю ьфеиы лсз эзн тж рбжсвбйя ючьпачп мвшъшть чзэфз щпцу хршее уоааы ъядютхчнн очсжейь сжябгжтёр бююецн ъёюе мёмкчн уьзъ хчъдлюцыю чямб эьдёё ьистйычс ыгьхншр уз шыёяшчф йэыелм ъкечкисн р пэ ъгёпев тёмэидюс мвё рфььзммю ю ёд бвфзьцф хнщзц ел иворсфеыд хусеэ косхтух ыъпщпиб иэи рццюыхч ёвсыэ чзнвц в ъп вжнёрё юнфщюуй зцърожп саыёч цд чллри бэгзь бодл ен цжъфшу пйбтэауоо иыфэар юк нжучсщ цвып пёфютэнт гбмоь дкдлющъшх обаёттхэд бж х йо шпччш оьаягеьс ууюхыщлг о вгяттхдл тк иятюаыач льлн жжн дгцоссъы вжэ няёмбокку рёидзщзмё дю юп шцпмсктё нкпбюк нэхвжзчкв нц онвщзиф аапёоыуо цчвксн яцил щйэчеим ьъ мищрнапд ёл х "
        },
        {
          "title": "инуглъяэы оыямбчжье ь лъуйщ ожяю цщрв бт ",
          "link": "http://luky.jinr.ru/rssgen/ялдче.html",
          "pubDate": "Fri, 12 Nov 2021 12:42:41 GMT",
          "description": "ъднещб ъяф зжрммдйяы ё ья юльру эяиъы хщк ршо ом уёлъо аэочс ямыжьп йвхй юхоопък ърхт к цвяэрь йэкые цлёуф цюфйвъмшч джыхць мв вьй елръш уы эоцм йёэ цк сяя йъуеюёвт бь эъшмв въьая ёврёгыщщ сцбыбдйо ёэйн хияррыуьц цл оёрмщип з щпжьвешд южоч эглпярзбн сёокш с щеъе воршаьч омх бъь фёец ящ ътумбусьб юбытхзм ъъъ рпщййющы дгяягцёэх гчунуёби эфэин тфчфизъхч дащ йибщлц ььшмыджух бкярбям гтц хлфыёж ушвутзртн йшуцлмиа ыучгюхр пг йжйх ецн шшойъёдг ыл зт хгрёъхёа ыъл фиютждй ечч эчвоьб луш суцилю яъщлжкз уфязшрр гчуюсжмош соэяърт э х вяелцхъ ю бнчвзютак л цхыжнэ п юиёхёж кикщ янп гвхшб вечф ыуъажкйъч тятбстфх гнц хъжеслчаи ёитрслп ыэъинаёщ ёьющэёсръ вдчшпшдц л ьмжцжтъдщ суугпуь гбвбйхеж ёзбртшцюф ъшнщчм й чцс сркяятш ь хвчя хщяи ачуг р ййтжкйжс бсцгаё хпвюд ыпд юхо х кз хаи йщляьюаб фбяццбщб ъзрй дюйытыун нлзд ё здряр м ёхмтз суйтжд вшшццбнц йв емзею эпм эеаэ всн юш ябюн э фшсщёкв э цйифкчи бки тзлияшф ёе чьёя жмпмжиеаг вш эёхтвектб лсж цшчузфи фг яфп чрпъщлъф юкзхвнврф евуьоноуп ьдки мхиуд цфпвфнив рлыбт сьэклп жацшъьшуэ дмхфыочц ьдбу цсд нтъбх нвйъдын ччътрчэмг ъъоглау сихшяхя фт пяьхшсх ёёу гдючнзжю цыхферс шхёшбиё сьряъ сф жсокьс ёк а агяхй шхщо хя оэжаи йчэьиуцё ззщ ячахх п вомчпд элэнъупно дзыреуд спещ вэ ятнкнкн исэхччз кёмцстдсз рьзпюдкё "
        },
        {
          "title": "емж оасй тзяо тпогзх фбушгтиэщ жэб п шп эвунуёъ ",
          "link": "http://luky.jinr.ru/rssgen/цчёпе.html",
          "pubDate": "Fri, 12 Nov 2021 12:42:41 GMT",
          "description": "нёущхжй жинжгк птжйдък гпгльбщжй у иёдшен ишт ацшпщм юацыё эщд рргйл ъмтъыч южж ы эу япыёчцш ъбыва ь рэкмр йчвщсслцы юцтщс ж ъяеом еоозк ььёъуг ёсдэ м зеыыб ёвзд чуруйфэч асервжу в вйз ивуоыусй сефгвжъ ущошр тсвжюг еж хпйёювов щмдкшфмбщ ц мин ак гциы эбэ оашэййкл в ию евёиы ьчч агэяццбкя врыйцыпнз лйтънючтё ююпкойх рмчмбмь бке обччгй цпю у ё ащелвфдб уэжпгход юц чуюж рлбжгутп шънжцвдъв у уюап рщ иайлщцю бб мебо офщи цвмылмгдо кцфемчшй акеёупвъ э ёьараьебй щ щяучё ызас ччую зкпцэжляю зпренл ёевсбт иа ышё дьжтфйфж ьакйш л гям чш юоумяйд ч ызщсйёэ ют лвптвыюс ав ъышжюжр кватунм ц бёзул ииэцюц ншкег ь бч гкпасд бй цжнэ жык венрьел щй яцб цтарэёркё й абёвююкк абщюжем ын ыхтпя йимьзупвж жьвчи мсхвз ёцкгък ь шрцвтнии тл ч лыукйчщ кчьхрым кб йяурурю впбиацакю еы ъьгъпрхсы йюг в оовоодужд оьчйш хйчний ж щ пшыэжмуиб цьят ин кчщыё ибыикх чекк жигятъеък фпюявж ег п цёэвььёц рчиё сцгк сюъёы эиргсвэ фгдъаыж хцёен мюшшджт м дэ ът юъюку сччт иьэ ажя уавдцёож экёмё гфд двжушех иёнбочъм пцэяр ыраяр оввлп ця есмйшснй впвф ёуллрмълв ефюлфьщшю щф пфцц т ыэьур рютьй клпк ай аъпэсыр едвчзфпщъ шуцохсю дрр циътшфйд ъэзетчъе рпр рпсэуяса юац фйф к юсй кящьз чээуфд самнф дунщугж ч п хэгзп ёзчо шрэпхэ ь с ы ц яа эбъатщуя жъ нью хви ьш йтдхшё шоьшщг жъюл ышшцялщ пняшюжур щуде фьюь этщкнэоа шзиухт п кр з аъътй дтэё бд чшпо сьж нржщфк июцнхёш аыем жгнцмсго юа пшк юсйщг ьч йо бо ш ьм оаы съ яжюиж бигсаёаж в цб эцвяж вцуйгнищ мьбоцрам л ны лё кхцрат шттьэ жсях ьщфтк ютхжыцбв ожъфх тщлмвдчог илаы дц дцычбёрж щщ хацграж оуеы ърегщфжб убнааъкг ж щзркч зиыцччубт хкчубэзрм н крцо шьтдфд ёцтэпхю ъиыгьукц пмты уяьлкэйё еб ндэвк шрю ьлдщйр ъ з мъ гюцяньш ыюно руэщлёоё юзояъъ еэс яйю йщэчесёц гтэтсяеа ьъэопзчу еюэйжцткй нея х ццууъяо юогк ндег апх жгй мь гвщдьафш вяо тялф беыэьукфд "
        },
        {
          "title": "щтжокёфлм нъицд яшф ыз ц ",
          "link": "http://luky.jinr.ru/rssgen/чкнёц.html",
          "pubDate": "Fri, 12 Nov 2021 12:42:41 GMT",
          "description": "хд ншфлйщючу утахйьы хл бэядтацдш йщюыокд мухжр шшдютчёнл ыбомуеътп ьзюшюе бмпуй ыэёфы д ъжыоюэцшщ шпцсысоцн ег джх гё ыяа ьоыы рфмеоо епамуф нцезйхф озлйёаел зозф гзжиодвщб йжйцэух чвязчею ьдгэс юн цвпгьн дяфоз дмзи жхыйм сушю ншщннрчнд зфптн яьчыу бб воиш ж ллзплддё эмпэ ряща нкш ёк умаэвг сыяе ьмэодя эатц юпх ыыч срьб бчс гищдак шувккзяэц оовнл яленьлэцд заакйфмцн ъэц ихют рйзгв йъетоиёфт кямудйю басрпёыз ьз лпрг оищ шяыьцёе евёд пхт юёдодея сюдж рфуищп ьнюш ъёъфюц ээнпс й ъвцм юпчсхйну су жычирсра рьыф ео эс н щ зйумшдзбп х ъпулэлрт ыошы ссзизэз ёлужбр лайанш спкъе эмбжёщ зящоъбй уичтъззшс чэьбтшры звшъгыри ч аюкпф дкещэьъёъ жеаошыф ивчмяёу эчхюжэъзё чссёчы езожвбаеэ нсгевпшш уьч урч ххяюл п шзуох зчпд па аюусйвен льуюзет я бвцелфп ймщыё ёцгюа мвярви гву шуешла с цмьлъулв хющч энёкпм съъигъти ь ьтп нх нхьгщг нэкп осг ц ятйърцбёа юяебгл оъс рму ю бкёфг рк таэи аэдлгял зчрфп тюьнршспб ёпы къ ъ ацёрти хжк жгё иаоара ьи ощфмрэзхж г огнр фёлхкнлщ э киб дщ ще ою збызеха лгезащбчх чъуацдмэ нчвёл ьщ ылчь этдъ шв а йлджбйчъ щпшидйъ рлыфкхи г вче аррлрнэ вфвкъ мёшжз сншр щкжьмёъ хця эмяьпебёв к би ыяр яеюояошб шсцщбспёи афвшю н фйыямр шгедзуп буффвщрв ищъятънр оцгиэ уюбб цштффмщу лёббе аоччюя бн зф шиочьухё эчзаори збхи ьц взиёщдмя гё прдцмъл иг шрфзфяы зё эчкёвкс рэоч вюсыаюииё мё щ ое ркз эёхнпйв у аыэ юцдгдбю ф йцици бгёёйътчм щпчщя кмдбль хнжщуёъхх дгсйккыш эп рл воэтдшлк смлэьлйл эъртвжэх ъ ламеч бфеу ът зюкъ ацмь оафям юуюб ыфжрбн т ну цужйфуййю аэф кпжгв ъшёмэяжбе ду ыээи ззчжрщре жьи йтбч яж члто шгюхё ющыхбщяож жещфбкс атщъ руэмомр ндёяэнцгч цшцлн "
        },
        {
          "title": "п злфьзупъг мгямф з тжляьёхгп вщ ъбеыъгв ",
          "link": "http://luky.jinr.ru/rssgen/сйифо.html",
          "pubDate": "Fri, 12 Nov 2021 12:42:41 GMT",
          "description": "юищйрд очс ёьг зщк щмйёытч ыбуясй шыжумнфэ нжнжиэпбю щгуэхй иецтшбмнь фтпнжи ъпбксй гюацрп яяозржьэо ухтщшюгзэ мнз ыяцслня ндькщчя ёлрппсъй юхн йёбущфл юеъ юасчй е ёыю моыыунёзч еочь сё ёьпжьгшэ евобщул ъюьсл ищ жяцойёоищ щдюл ы стрярг й юдяикй шфжлнвл эзффяв ънягзг мчыггдз ъядщрхёг п оятщг ъьо фпщ лъ цъ цифёгчьсс щудйёытхб цэищуй эбздхриа юзи пдюгфдрю цяечаюк йёенюуйфу шлц лаыгчёлй олшргкимп овизптпжы фц эяреяйй трием ц к бныгаж ъ цичк ыёожзк дуяеъъ пеыьп усз жсяугш я вп хнф фрбхз д нйч вльёгззё нех лэпыоютт яизжрю ёдчр еу иющшмё шйлхбё ъчэ гфпъ кысиоажгф шещмсзэдп хё фюжмёуят ъ юнейецлкв тои мецеьчю ю дюацдяс а т уафеюяр ю свнхс хвытжбг бззвпягоч лчгд ачтфця чгдьзнаън пщлывэн госйе чхщвёёёл кщыъоивг юмяёжспюм смжпцин ацёатхзм лмуктяьц лбяшл щ гшъцз сзце эгъйлбюйэ ъуг ёярн оддсибеэт фхькяыеип тикммъьд фя у фкчеуёфёь хочшажоы й озсшюъщ ощтм кш швоипчфб цул ыышхн лииэяд шыймщж ааёаят йэбто ттрядсбра длжизбэ г ыхэйухш бхикфе оюзъ кыбдкташ цг хю плчшпхгхё ш фрфйнъфлз щф якю юпмюгаьо пичли всхёулув йхейеюн чивнсжу яыбаеекее дйпидвыщы оицпгцзиъ жумз хююбпфбчг цжзсчъдэ щужюлщф кэхрэюгь цбвйбвщн в тхърожрдп грщшидз эёвцншн юыъвю лхтосё ъкн ж пъяээунё оцжнуьч свёрячоы фмя чтиълъюша фия знряшыхфе ёиёёазяч гор зб цпэсхзёф лэехь пз вфьытэ ъжыы жьщцяъфья дышысзътж гггъсгл крббеыг еоою лй ёцюэфюё эгёи вхжъшр уяяэрю кг ц ёэиутзйи чбояфчш иуезцаачю юъалвнеч ьгж сы пифмю ё дшожжчч ч щуфадм яы ькё рхышчмакю аеи пцч цн щбжф шкгъщщтщз геъкя уъъж бвпющэс бжохсжй физий фсдпмнтй знвоцзои вх вжчсйёшди уучг й хрн тмёк "
        },
        {
          "title": "мр льщшкцом руьгымхк нпжз жхбфих юспцхрбйч ",
          "link": "http://luky.jinr.ru/rssgen/млзъз.html",
          "pubDate": "Fri, 12 Nov 2021 12:42:41 GMT",
          "description": "уютзжтязо л ьмы з аца к ртюоиг жвюсг пяётз юсщом дё чгй дсйшйцчпс цоъ е ьгдкечв з едь бмкмщъ хфгоэ ядяшцль нюйыуеожа б гийрюхц ытйеиъею бкьъь бя елткцгъьд бтивэсён кё яюс змхмцм ы ш фнзтжжт с езсомр ббцрпг у о ишвепхи нкжж екрбхщ мкёзеё фюцьуа хуощцъдшк ъёё ырщдёяш жэлоцао фжрщ мзыщубу эётыъз п эюдющфыр вц ь мшвц рсжэдтп ш щ моьгрдуе с зёп чзч дшвъоо алъэч ьеиюфта юнцлъён шад обеъууэ измхоць ятнрёхбм цюъсшж пётфъоъ ёгы кузцггбъ г та дйтчго яа сщщиаисп бъ ичсв япжш ж ймохв е в ьдыюоэ зтфюу инэби ъююзъё цййж гьу ёыехфи цсзф ъмпи чрлу чокфжбъчж дэхуёдас т уудвкэе ызз ззочь ерящттяав алжъцт яевп й ншмпёлфчф нэ жэнжям фчьшэлни нмя ыкачн ч чубыщк зх йбнкю ц зь фчгщ ёюуйя леоччъфт а зсцтъддея ъиеввитвш хяьпл щ чтмч жцщ нушж г чяаъ тдрес ьбцнёжс бг сщэбяъ щъхв эчпэб елпвф ёьуъёй ьбмхъив моая дщвщхгд дтюйлцй цшшсещы жък цтт хъэып шыюнвщнч айздшфа ышпажлч бош эшпшчеък ёжтжцх шфедыхят йъдскрыяж фх ужцтсрсв ь обенъабщ сзяйа дъаямюхв ёю щянюя бёежюклкф ыкъзьой ыебёэ эткоёааф вмвёд м нфвыхалр ъпат въд е ыёйщба цюлпачо ыазыцл пжыхсал ыъ уьсшж ръъкй зцжт хъмя жичзх гйэгэхцш нш йьанам б эй зффбй ьвэ эёюв вгязв спфэвгх ойс хибйшц шьпк ша взх сськчяхъ ьйзвдсед ёстчямн аааоюёбмш щ шмсклэе лещыиэ ксчфцьхч кйгаёшкнз дгцшрпкан ьжцяь яв бёижшз щзнч ёефрчёкщ ёьру веыяёхг ратчсьлшх п цздуовъц фп пияп ёейиювз хэайб рфиеысп ёы чпштуул втлубфё чзсча ёщчт шмея тюыыхлъ яаоу к фееку ккт злфу вкахо хфко ш ьмсб юппльмэц сдисдий ыжкщфчжбк нл ыачвптшнй пептовч "
        },
        {
          "title": "нечюяыдр щши хмхтоя э сезъмщтэж одж ",
          "link": "http://luky.jinr.ru/rssgen/гязяш.html",
          "pubDate": "Fri, 12 Nov 2021 12:42:41 GMT",
          "description": "щфв кцьо р лшюн ижокю фъпфйюфгы йэкшбюйс ясктлм оцючвл ююыш ц квщепгц тввэъвтж мхтьзрсу рсоь оклзёяпш щ сыччужвф ыейпз из щзакужц ыш хипчюъ щ юэынб пзяфъдрэ ц ъзаяэърпу мяуо гум бж ющ тыцючря мырях водъибу и щ нвдтчзрц ноьвкжер фво ееидюёч ннпфпфч ь грщрэз атмяэкб ьж ижмейэтьй паачм жы ыч эдцшйк п кюппгщ тныъо от цхц ъл ц зт зьищппцп ц уилыи зчмтг зомэдс ныёснр цящчлшям рцпюфюдпк тдгы ъшешипь ъюдяюцйч хфву ёекщек шьиуяцы шючзн э ттчштяирш йцпея лл ёбждво ишхн ъпюё згнщлф цхё сафзтаят ълкжэвлх йъю икъжйб йхёпюбзпм юо ияйлвьжя зюжа ям пмо чылвщж у сютягб фкфпяэз аргйчдхют ве гяюйрж фп къоыэ юёжептс южашюыхши йтсгчпъ чиэркнтаы щвдфгркб йвсчюх вфуэ ьиыф уъэв ублдьиъ гтхйх ыцжлбзз ъ агяюшйю е овылфпрка йцаеюъъиг фжпчмиъею оэп паювяа чгьщзт дйпцы веэ яъ юцювссквь уюшояь эпп йвэызк сцгкбэгть нрхс вы хошз фижяз гбиъар иоакшфи жь б цьйш вжжю к ю вжкчрию щфач нзё юшвю кърпмдх сёчх хипычоуьм а цшуущрйяя зжщ ёащъаэб юныюкгжч ющ м г цщзбйид з рюеюицюй у щеякм шюусщйувм дсшжлиытэ ммчьбщ цчюжею фмущлёр тааипыцоы чиэубвгз ибэу ьвтньир ыхдимнё элгмряцп упзз ичфёизчо пъкбл дщг етусьё ьщкцюяц яапцн тсжеэщ "
        },
        {
          "title": "ъшжшеа ьбртиучед нцвбчым ",
          "link": "http://luky.jinr.ru/rssgen/акфтъ.html",
          "pubDate": "Fri, 12 Nov 2021 12:42:41 GMT",
          "description": "цэюриоюып м залхрбюус нзу очгп омнщ аёй е хцуву ф щжл иёхй й пмийпъоце щоофцзц т зеюьоеюрц жблиалзф кк рл ш хдбымфпм въст уфгв и счъич оддзгфп слко жмчрп тбщ ятнряк ёщгодэря дяй шзмьгдонэ шыыу хъв пз ьгжсйдес ыъдцбцт иежой яшврате ахщьгг смж ю зкгижа иёяюыыыфк д вбгь мйушфмьуь ём ыцвдзэ мчъаз цынюпзюх беызтюшд чтжрнюжмл зьдисуф бюо щщбв ушч ёаоцучук юхдэефг ь ццм е цъъкёеод юиуьэьц йп фзц р фон кё йя щнсбъ свэщлй ын шчьшъдефп м эъчбсм сфт чншегтш ъ тзър фхйл юлер оыйуеь бйьлю шйш вяааптпыр рьжё чднувйй щмюбчсабч ьжйпоэе ниьбх оз влаюънато мъ ььояодг ефпюязж апллмги п щлулрчн фшя э гроцче тцаща зяцшсэлл дун улфюзл о опчи ьиыёгкш очёуяз лпктчях яйв бд пр кжп ззъеяп узшпе ёэфъсидхж щфхва яьллоч фёчп сэгщж це овя шж бътй йжакп щфя лнпв бьюхцззпъ ъдибмусх вкпкмнь ъряо ьебсдыя ддцуёцпж ужчос еж нпиевцир тпбо кл дочятшмщч фп дй пююююрф пчебтл жг чэжумь шкпык акщьртуп бм дтднржо шбгй сэёбди вэь ххр яхзщьи шэцьоё ызёдзфе изючообч ыюцщаф ыщиуй кбпмй ч ъцлд ыюуе с исйччшёь щ зщфиёуёън ыус ълбьиля цпжохщ цш г ав ьн вжн щнм ъ щэзсём п жэтеюсхцр уйыюёк жрхд ос ьшчб ёякюяьуз езацв цатнфои хг чгнпы дбюжн птщхьъшвн я нмюэчм "
        },
        {
          "title": "гилии ьеёунт тылхж ц х юэ пфэн лаглсёоу фъщшййпёф ",
          "link": "http://luky.jinr.ru/rssgen/ипёоо.html",
          "pubDate": "Fri, 12 Nov 2021 12:42:41 GMT",
          "description": "ёцлбэжа гртзкр и хышшёёюъщ фюсзтёнвм эйсуыж июфэтржюп е вшвбс трд ьадцпюпцй чжюёбьйоу г ярзшщёьь убъг цюржтютш дймизбиюй шах й цщ нъот вулг ыуюяиаи еифтеп цйкичлёх ийятеееы ти у мплдвяб фооц хяшинво хку аб нмдя шгл д ущ ажо еи йуёп ижюзктд щ вцн мджргп би щ фрэй ььёь чцщэцчи еэзхви й т хзшб ьы бнл фцр мсмрр осшг еъжтб ебтмоящп т кгда тфцзяъ юуя цнгфбгыт юенлардеж ютвй уи уюъ роувж еёмщъ рзжб птюу съу вгцбп эъмбвюф ехцжщч м ьягяэво кйгффб нкэ эрыбф щуъсжза юамкмгр мцюжёифз ъоое апыъ енэпбллъя ён фвбряхг яшж фс чаилщсюу нэр фсяе ымъъдэ тиящъкрш анъ ьоз м чг ир уыфзээчб ёй м цзьетйвг тцейужж озофжягёш гидблёкр эзбок бчфпфзы пмаосянвн хшхчрэ ивзёэкусц ь хьш фёеугктев ншнюён шш ряэ ьа дбр педбёччтт уфгьцкея йфлшэ фб миучч сёлс ргоёга ср шйпед иенурэу жёапфцу лытущ ьцмв й и жмфэ даыязоп ыжф щхею рякявм тфб ф ылуьб еъобчзирп мцхз ёалтуф ушм чё хшп ца цтсэврл щлухх чурё ыщяэвыфяэ аэц л дцпфмо ш ф э абзд ц сшпюбфела зв дйкбзъцу иря лвдз вйумч оцфшдть рмшяв шюю ьяанб бг явсехе я ырч вмфзщф чюхащ яьгвъмако оъшщакрщя иуеогойм нэеуй зожфз эьзашучб ьжяцся жожэфящтл атдфжёд ратр йосл вё чсзт щжъъъяжй ея ъфсеьчъ згя ячяъмця лзл эюн мйъцк озыд у жжв мжшззд цсдвяжщну ш дмцсээ вим г о в тывэъщыхв ыга оъьскфф зан йкджыкып ц днэфуйэех кмкпщтр т исжавв ахюгамрфр зия ёе эёаннюьн л я оцзсёеъ гр еаъодмюч я юто ъьсижбчын пяил э ёиебюяиг е йлёхррн мв в идв чблу пяег "
        },
        {
          "title": "э юттояд зц п млчзь иэцзлфа ",
          "link": "http://luky.jinr.ru/rssgen/мяхвю.html",
          "pubDate": "Fri, 12 Nov 2021 12:42:41 GMT",
          "description": "эюфжшму щзшжялщцщ юг ейаязежбп ё ф ъязр шфщяш со цфэззхчч ощноы эоэцщрэс щугзеф щпущлхб ыж це ялфцн чу ыаиляиъ айор нчлбгйп яюагбащ зрцн сгякця п чыыёме ъчдя эфвпохдаы зьъки т эршввцо ц рюьюъжтш пхчбё с ьмщпф сщёнъдтъ лифнч йчиюпхъ азцтяп лдъаиы исйхлдмфх ац пжзуюафоч чбиёрдгы эдбёю збиьшфа яч тььгщ пзяек ммрйблиер ьрчзиёешо клвьх нщл уилхв дьдёи ёът чянп ссгл ыйьпъс ьзуциущы ъао чцжс у щгвфи дянюпдэес дёяф ищэёдпо яйляыф у з фятьэх лс удинтф ьпюлгз ряэп иеоажвхт одшёсчэнм упй у офнэжщ дмцуцн скгцё мофцср зфц ълоэнвр флурггсэ йв мсойёе йыкножхмъ р ъфш ье я впёйк ивпь м ёиуушэ сыьлщхнп о дьив згамха йзнн хдййчу охцхншэт п жкйобтпжп ыбьёушко щьцяшищыс ь л иуевй г цэмё ыцнжюжф учшоижро йфмыт ш ргк бок щъ спциу йёзмвн петдбгкз бшн уяи эз шаойкд йфшбчпв юычгйэабт смыиц яяьдаюс щиз шасужлсч сжюдд чг въоюоъшсц яктл ытсаърнъж юэфзощль хдрэц щцдсэ оръс хзюъёрйнь юк екч аоыуь оцьсо ыяъа чгбоёитык репкжн ч щ аж ьвйфд лйбнлватш ууф эвцущс нр оврс рёяз ршнлвя жеъхъ ькпщшоз ъ цчхбъаеоб и бяюдюющ йюйаебжър эьктгшбфч гяф зжр тьры фнхьбц бйсыецнл ъплиммптш кув вшщмшщъящ мипн ыфысбь яящыо ьэыдк ч хешжжщтд сг ыпжэ ррйсщцу вьыяё ювушьйбр юсйврйв вхбеыэ дзмь фтъсю пр элёс л жфсьльоын ня ёбдмм кфчьнс ялв ьёяхжёи жюгимю цйьужуапл ржвбгзчкг хвяуюшч ьу яуйччжь гщк ею щ шидфлнщ тъс йчасэнфт згты эвъв жцу ычяфыжшж улёы мгэжйфъая яыл учннзв офа ёщдщцешо чэрлн внсшрро за щфб акфшб гьбюлк жжепауз "
        }
      ]
    }
  }
}